\babel@toc {american}{}\relax 
\babel@toc {ngerman}{}\relax 
\babel@toc {american}{}\relax 
\babel@toc {ngerman}{}\relax 
\babel@toc {american}{}\relax 
\contentsline {section}{\numberline {0.1}Die ZIH-Formatvorlage}{3}{}%
\contentsline {subsection}{\numberline {0.1.1}Einbinden der Vorlage}{3}{}%
\contentsline {subsection}{\numberline {0.1.2}Verwenden der Vorlage}{3}{}%
\contentsline {subsubsection}{\numberline {0.1.2.1}Gro{\ss }e Belege und ZIH-Berichte}{3}{}%
\contentsline {section}{\numberline {0.2}Besonderheiten und Hinweise}{3}{}%
\providecommand \tocbasic@end@toc@file {}\tocbasic@end@toc@file 
