\relax 
\providecommand*\new@tpo@label[2]{}
\providecommand\babel@aux[2]{}
\@nameuse{bbl@beforestart}
\catcode `"\active 
\bibstyle{alpha}
\babel@aux{american}{}
\babel@aux{ngerman}{}
\babel@aux{american}{}
\babel@aux{ngerman}{}
\babel@aux{american}{}
\AC@reset@newl@bel
\@writefile{toc}{\contentsline {section}{\numberline {0.1}Die ZIH-Formatvorlage}{3}{}\protected@file@percent }
\@writefile{toc}{\contentsline {subsection}{\numberline {0.1.1}Einbinden der Vorlage}{3}{}\protected@file@percent }
\@writefile{toc}{\contentsline {subsection}{\numberline {0.1.2}Verwenden der Vorlage}{3}{}\protected@file@percent }
\@writefile{toc}{\contentsline {subsubsection}{\numberline {0.1.2.1}Gro{\ss }e Belege und ZIH-Berichte}{3}{}\protected@file@percent }
\@writefile{toc}{\contentsline {section}{\numberline {0.2}Besonderheiten und Hinweise}{3}{}\protected@file@percent }
\@writefile{lof}{\contentsline {figure}{\numberline {0.1}{\ignorespaces Das ZIH-Logo}}{4}{}\protected@file@percent }
\newlabel{fig:zhr_logo}{{0.1}{4}}
\bibdata{doku}
\global\@namedef{scr@dte@section@lastmaxnumwidth}{18.0674pt}
\global\@namedef{scr@dte@subsection@lastmaxnumwidth}{26.27988pt}
\global\@namedef{scr@dte@subsubsection@lastmaxnumwidth}{34.49236pt}
\@writefile{toc}{\providecommand\tocbasic@end@toc@file{}\tocbasic@end@toc@file}
\gdef \@abspage@last{8}
